{
   "stac_version":"0.9.0",
   "stac_extensions":[

   ],
   "id":"Sen4CAP_markers",
   "title":"Sen4CAP markers",
   "description":"",
   "license":"various",
   "keywords":[],
   "providers":[
      {
         "name":"Sen4CAP",
         "roles":[
            "processor"
         ]
      }
   ],
   "extent":{
      "spatial":{
         "bbox":[
            [
               -180,
               -90,
               180,
               90
            ]
         ]
      },
      "temporal":{
         "interval":[
            [
               null,
               null
            ]
         ]
      }
   },
   "properties":{
      "license":[
         "proprietary"
      ],
      "eo:epsg":[
         4326
      ]
   },
   "summaries": {
      "base_url": {
         "title": "Base URL",
         "type": "string"
      },
      "site": {
         "title": "Site (short name)",
         "type": "string"
      },
      "year": {
         "title": "Year",
         "type": "integer"
      },
      "product_type": {
         "title": "Product type",
         "type": "string"
      },
      "parcel_ids": {
         "title": "Parcel IDs",
         "optional": true,
         "type": "array",
         "items": {
           "type": "integer"
         }
      }
   },
   "cube:dimensions":{
      "t":{
         "type":"temporal",
         "extent":[
            null,
            null
         ]
      },
      "parcel":{
         "type":"other"
      },
      "band":{
         "type":"bands",
         "values":[
            "mean_AMP_VH_110",
            "mean_AMP_VV_110",
            "mean_COHE_VH_110",
            "mean_COHE_VV_110",
            "mean_FAPAR",
            "mean_FCOVER",
            "mean_LAI",
            "mean_NDVI",
            "stdev_AMP_VH_110",
            "stdev_AMP_VV_110",
            "stdev_COHE_VH_110",
            "stdev_COHE_VV_110",
            "stdev_FAPAR",
            "stdev_FCOVER",
            "stdev_LAI",
            "stdev_NDVI",
            "mean_AMP_VH_037",
            "mean_AMP_VV_037",
            "mean_COHE_VH_037",
            "mean_COHE_VV_037",
            "stdev_AMP_VH_037",
            "stdev_AMP_VV_037",
            "stdev_COHE_VH_037",
            "stdev_COHE_VV_037",
            "mean_AMP_VH_161",
            "mean_AMP_VV_161",
            "mean_COHE_VH_161",
            "mean_COHE_VV_161",
            "stdev_AMP_VH_161",
            "stdev_AMP_VV_161",
            "stdev_COHE_VH_161",
            "stdev_COHE_VV_161",
            "mean_AMP_VH_088",
            "mean_AMP_VV_088",
            "mean_COHE_VH_088",
            "mean_COHE_VV_088",
            "stdev_AMP_VH_088",
            "stdev_AMP_VV_088",
            "stdev_COHE_VH_088",
            "stdev_COHE_VV_088"
         ]
      }
   },
   "other_properties":{

   },
   "links":[]
}